…
Since your trial data will likely be standardised to the [Analysis Data Model (ADaM)](https://www.cdisc.org/standards/foundational/adam), the simulated data has been set-up to imitate a truncated version of the "subject-level analysis dataset" `ADSL`, here termed `baseline` or `bl` and repeat eGFR measurements from the "laboratory - within 2 days of the last meds" dataset `ADLBM`, here termed `follow-up` or `fu`. If you'd like to know what each of the columns in the datasets are, please see the [`README`](https://github.com/ra-fletcher/smartc_egfr_slope/tree/main/data) for the data folder of this repository.

Here is a snapshot of the baseline data:

``` r
# Source function to generate synthetic data
source(glue::glue("{path}/src/generate_synthetic_data.R"))

# Generate synthetic baseline data (derived from ADSL)
bl <- generate_synthetic_data(.table = "baseline")

# Print baseline data
print(bl, n = 10)
#> # A tibble: 5,000 × 8
#>    usubjid trt01pn randfl ittfl trtfl blgfr blglp1 strata                                
#>    <chr>     <int> <chr>  <chr> <chr> <int> <chr>  <chr>                                 
#>  1 id0001        0 Y      Y     Y        54 N      Screening eGFR 45 to <60 mL/min/1.73m2
#>  2 id0002        1 Y      Y     Y        27 N      Screening eGFR 45 to <60 mL/min/1.73m2
#>  3 id0003        1 Y      Y     Y        50 N      Screening eGFR 45 to <60 mL/min/1.73m2
#>  4 id0004        0 Y      Y     Y        47 N      Screening eGFR 45 to <60 mL/min/1.73m2
#>  5 id0005        0 Y      Y     Y        75 N      Screening eGFR 60 to <90 mL/min/1.73m2
#>  6 id0006        0 Y      Y     Y        30 N      Screening eGFR 30 to <45 mL/min/1.73m2
#>  7 id0007        0 Y      Y     Y        56 N      Screening eGFR 45 to <60 mL/min/1.73m2
#>  8 id0008        1 Y      Y     Y        59 N      Screening eGFR 60 to <90 mL/min/1.73m2
#>  9 id0009        1 Y      Y     Y        65 N      Screening eGFR 60 to <90 mL/min/1.73m2
#> 10 id0010        1 Y      Y     Y        70 N      Screening eGFR 60 to <90 mL/min/1.73m2
#> # … with 4,990 more rows
#> # ℹ Use `print(n = ...)` to see more rows
```

Here is a snapshot of the follow-up data:

``` r
# Generate synthetic follow-up data (derived from ADLBM)
fu <- generate_synthetic_data(.table = "follow-up")

# Print follow-up data
print(fu, n = 10)
#> # A tibble: 41,800 × 12
#>    usubjid randfl ittfl trtfl anl01fl  aval  base paramcd  param                                                  ady avisitn avisit  
#>    <chr>   <chr>  <chr> <chr> <chr>   <dbl> <int> <chr>    <chr>                                                <dbl>   <dbl> <chr>   
#>  1 id0001  Y      Y     Y     Y          54    54 GFRBSCRT GFR from Creatinine Adjusted for BSA (mL/min/1.73m2)     1       0 BASELINE
#>  2 id0001  Y      Y     Y     Y          51    54 GFRBSCRT GFR from Creatinine Adjusted for BSA (mL/min/1.73m2)    22       3 WEEK 3  
#>  3 id0001  Y      Y     Y     Y          61    54 GFRBSCRT GFR from Creatinine Adjusted for BSA (mL/min/1.73m2)    91      13 WEEK 13 
#>  4 id0001  Y      Y     Y     Y          63    54 GFRBSCRT GFR from Creatinine Adjusted for BSA (mL/min/1.73m2)   183      26 WEEK 26 
#>  5 id0001  Y      Y     Y     Y          53    54 GFRBSCRT GFR from Creatinine Adjusted for BSA (mL/min/1.73m2)   362      52 WEEK 52 
#>  6 id0001  Y      Y     Y     Y          47    54 GFRBSCRT GFR from Creatinine Adjusted for BSA (mL/min/1.73m2)   544      78 WEEK 78 
#>  7 id0001  Y      Y     Y     Y          37    54 GFRBSCRT GFR from Creatinine Adjusted for BSA (mL/min/1.73m2)   726     104 WEEK 104
#>  8 id0001  Y      Y     Y     Y          58    54 GFRBSCRT GFR from Creatinine Adjusted for BSA (mL/min/1.73m2)   911     130 WEEK 130
#>  9 id0001  Y      Y     Y     Y          59    54 GFRBSCRT GFR from Creatinine Adjusted for BSA (mL/min/1.73m2)  1092     156 WEEK 156
#> 10 id0002  Y      Y     Y     Y          27    27 GFRBSCRT GFR from Creatinine Adjusted for BSA (mL/min/1.73m2)     1       0 BASELINE
#> # … with 41,790 more rows
#> # ℹ Use `print(n = ...)` to see more rows
```
…
# Join
gfr_c <- arm |> 
  dplyr::left_join(gfr, by = dplyr::join_by(usubjid), multiple = "all") |> 
  dplyr::mutate(
    # Convert days from baseline to years
    time = ady / 365.25,
    # Generate spline term
    spline = dplyr::if_else(time >= k / 365.25, time - k / 365.25, 0)
  )
  
# Print combined data
print(gfr_c, n = 10)
#> # A tibble: 40,957 × 10
#>    usubjid trt01pn blglp1 strata                                  aval   ady  base avisitn    time  spline
#>    <chr>     <int>  <dbl> <chr>                                  <dbl> <dbl> <int>   <dbl>   <dbl>   <dbl>
#>  1 id0001        0      0 Screening eGFR 45 to <60 mL/min/1.73m2    54     1    54       0 0.00274 0      
#>  2 id0001        0      0 Screening eGFR 45 to <60 mL/min/1.73m2    51    22    54       3 0.0602  0.00274
#>  3 id0001        0      0 Screening eGFR 45 to <60 mL/min/1.73m2    61    91    54      13 0.249   0.192  
#>  4 id0001        0      0 Screening eGFR 45 to <60 mL/min/1.73m2    63   183    54      26 0.501   0.444  
#>  5 id0001        0      0 Screening eGFR 45 to <60 mL/min/1.73m2    53   362    54      52 0.991   0.934  
#>  6 id0001        0      0 Screening eGFR 45 to <60 mL/min/1.73m2    47   544    54      78 1.49    1.43   
#>  7 id0001        0      0 Screening eGFR 45 to <60 mL/min/1.73m2    37   726    54     104 1.99    1.93   
#>  8 id0001        0      0 Screening eGFR 45 to <60 mL/min/1.73m2    58   911    54     130 2.49    2.44   
#>  9 id0001        0      0 Screening eGFR 45 to <60 mL/min/1.73m2    59  1092    54     156 2.99    2.93   
#> 10 id0002        1      0 Screening eGFR 45 to <60 mL/min/1.73m2    27     1    27       0 0.00274 0      
#> # … with 40,947 more rows
#> # ℹ Use `print(n = ...)` to see more rows
```
…
